<?xml version="1.0" encoding="utf-8"?>
<!-- Generator: Adobe Illustrator 24.1.3, SVG Export Plug-In . SVG Version: 6.00 Build 0)  -->
<svg version="1.1" id="Layer_1" xmlns="http://www.w3.org/2000/svg" xmlns:xlink="http://www.w3.org/1999/xlink" x="0px" y="0px"
	 viewBox="0 0 52.03 52.03" style="enable-background:new 0 0 52.03 52.03;" xml:space="preserve">
<style type="text/css">
	.st0{fill:#FFFFFF;}
	.st1{fill:#25489E;}
</style>
<rect class="st0" width="52.03" height="52.03"/>
<path class="st1" d="M22.41,36.18c4.86,0,9.39-0.03,13.92,0.01c2.55,0.02,3.92,1.1,4.16,3.11c0.3,2.54-1.18,4.22-3.93,4.25
	c-5.19,0.06-10.37,0.02-15.56,0.02c-1.5,0-3,0.05-4.49-0.03c-1.86-0.11-3.68-0.48-4.57-2.4c-0.89-1.92-0.27-3.65,0.96-5.22
	c4.96-6.3,9.92-12.6,14.88-18.9c0.29-0.37,0.58-0.76,0.87-1.13c-0.3-0.55-0.78-0.3-1.16-0.3c-3.48-0.02-6.95,0-10.43-0.02
	c-0.79-0.01-1.61-0.07-2.38-0.27c-1.61-0.42-2.59-1.71-2.6-3.25c-0.01-1.54,0.94-2.85,2.54-3.3c0.76-0.21,1.58-0.29,2.37-0.29
	c5.72-0.02,11.44-0.02,17.16,0c1.01,0,2.03,0.03,3.01,0.37c2.17,0.75,3.12,2.75,2.24,4.87c-0.77,1.84-1.99,3.41-3.21,4.97
	c-4.19,5.34-8.4,10.66-12.61,16C23.26,35.06,22.94,35.48,22.41,36.18z"/>
</svg>
